%YAML 1.1
%TAG !u! tag:unity3d.com,2011:
--- !u!114 &11400000
MonoBehaviour:
  m_ObjectHideFlags: 0
  m_CorrespondingSourceObject: {fileID: 0}
  m_PrefabInstance: {fileID: 0}
  m_PrefabAsset: {fileID: 0}
  m_GameObject: {fileID: 0}
  m_Enabled: 1
  m_EditorHideFlags: 0
  m_Script: {fileID: 11500000, guid: e0e512adf35b532469809d470a9c8e8b, type: 3}
  m_Name: Mission UI 14
  m_EditorClassIdentifier: 
  Missionnumber: 14
  QuestionFinal: In 543, the place value of 4 is ______.
  Instruction: Find and Go to Minotaur
  GKCButtonTextBefore: Start Activity and do the challenge
  GKCButtonTextAfter: Scan marker if done
  HintBoxText: zxczczczxczxc
  FinalQuestionAnswers:
  - Tens
  QRScanned: 0
  Marker: Minotaur
