%YAML 1.1
%TAG !u! tag:unity3d.com,2011:
--- !u!114 &11400000
MonoBehaviour:
  m_ObjectHideFlags: 0
  m_CorrespondingSourceObject: {fileID: 0}
  m_PrefabInstance: {fileID: 0}
  m_PrefabAsset: {fileID: 0}
  m_GameObject: {fileID: 0}
  m_Enabled: 1
  m_EditorHideFlags: 0
  m_Script: {fileID: 11500000, guid: e0e512adf35b532469809d470a9c8e8b, type: 3}
  m_Name: Mission UI 20
  m_EditorClassIdentifier: 
  Missionnumber: 20
  QuestionFinal: "Jennie\u2019s mom baked 40 cookies and Dara\u2019s mom baked 36
    cookies. Jennie and Dara ate 4 cookies each and brought the rest to school for
    a party. How many cookies did they bring to school together? "
  Instruction: Find and Go to Zilong and do the challenge
  GKCButtonTextBefore: Start Activity
  GKCButtonTextAfter: Scan marker if done
  HintBoxText: zxczczczxczxc
  FinalQuestionAnswers:
  - 68
  QRScanned: 0
  Marker: Zilong
